<?xml version="1.0" encoding="UTF-8" standalone="no"?>
<svg
   xmlns:dc="http://purl.org/dc/elements/1.1/"
   xmlns:cc="http://creativecommons.org/ns#"
   xmlns:rdf="http://www.w3.org/1999/02/22-rdf-syntax-ns#"
   xmlns:svg="http://www.w3.org/2000/svg"
   xmlns="http://www.w3.org/2000/svg"
   xmlns:xlink="http://www.w3.org/1999/xlink"
   xmlns:sodipodi="http://sodipodi.sourceforge.net/DTD/sodipodi-0.dtd"
   xmlns:inkscape="http://www.inkscape.org/namespaces/inkscape"
   inkscape:version="0.92.5 (2060ec1f9f, 2020-04-08)"
   sodipodi:docname="codeberg-coaster.svg"
   id="svg10"
   version="1.1"
   viewBox="0 0 377.95275 377.95274"
   width="100mm"
   height="100mm">
  <metadata
     id="metadata16">
    <rdf:RDF>
      <cc:Work
         rdf:about="">
        <dc:format>image/svg+xml</dc:format>
        <dc:type
           rdf:resource="http://purl.org/dc/dcmitype/StillImage" />
        <dc:title />
      </cc:Work>
    </rdf:RDF>
  </metadata>
  <defs
     id="defs14">
    <linearGradient
       xlink:href="#linearGradient6924"
       id="linearGradient6918"
       x1="42519.285"
       y1="-7078.7891"
       x2="42575.336"
       y2="-6966.9307"
       gradientUnits="userSpaceOnUse"
       gradientTransform="matrix(1.098001,0,0,1.0984667,-46490.761,7873.9752)" />
    <linearGradient
       id="linearGradient6924">
      <stop
         style="stop-color:#ffffff;stop-opacity:0"
         offset="0"
         id="stop6920" />
      <stop
         id="stop6926"
         offset="0.49517274"
         style="stop-color:#b8b8b8;stop-opacity:1" />
      <stop
         style="stop-color:#4c4c4c;stop-opacity:1"
         offset="1"
         id="stop6922" />
    </linearGradient>
  </defs>
  <sodipodi:namedview
     inkscape:current-layer="svg10"
     inkscape:cy="147.36593"
     inkscape:cx="209.13278"
     inkscape:zoom="1.5609166"
     showgrid="false"
     id="namedview12"
     inkscape:window-height="1001"
     inkscape:window-width="1680"
     inkscape:pageshadow="2"
     inkscape:pageopacity="0"
     guidetolerance="10"
     gridtolerance="10"
     objecttolerance="10"
     borderopacity="1"
     bordercolor="#666666"
     pagecolor="#ffffff"
     units="mm"
     inkscape:window-x="0"
     inkscape:window-y="25"
     inkscape:window-maximized="1" />
  <!-- outline -->
  <!-- small shadow -->
  <!-- mountain in foreground -->
  <!-- text -->
  <path
     style="font-style:normal;font-variant:normal;font-weight:bold;font-stretch:normal;font-size:17.89859962px;line-height:1.25;font-family:Tajawal;-inkscape-font-specification:'Tajawal Bold';font-variant-ligatures:normal;font-variant-caps:normal;font-variant-numeric:normal;letter-spacing:-0.284861px;word-spacing:0px;fill:none;fill-opacity:1;stroke:#000000;stroke-width:0.75599998;stroke-miterlimit:4;stroke-dasharray:none;stroke-opacity:1"
     d="M 70.833984 262.36719 C 64.050534 262.36719 58.753662 264.64732 54.941406 269.20508 C 51.078634 273.76272 49.146484 279.77922 49.146484 287.25977 C 49.146484 293.00617 50.558997 298.01095 53.380859 302.27148 C 57.293036 308.21615 63.233346 311.18945 71.207031 311.18945 C 76.750835 311.18945 81.580492 309.13144 85.691406 305.01953 L 81.902344 299.15039 C 78.239414 301.47895 75.07231 302.64258 72.396484 302.64258 C 68.334976 302.64258 65.090644 301.08189 62.664062 297.96094 C 60.386809 294.98825 59.246094 291.42086 59.246094 287.25977 C 59.246094 282.5534 60.213148 278.7392 62.144531 275.81641 C 64.374571 272.39822 67.51796 270.68945 71.576172 270.68945 C 74.497955 270.68945 77.742289 271.9767 81.308594 274.55273 L 85.097656 268.38672 C 80.342214 264.37406 75.587229 262.36719 70.833984 262.36719 z M 205.45312 262.36719 L 196.0957 267.64258 L 196.0957 310.29688 L 203.67383 310.29688 L 204.41797 306.95312 C 206.30646 309.2948 208.85136 310.65085 212.0332 311.05078 L 212.0332 304.62695 C 210.39728 304.52732 208.94501 303.92012 207.68164 302.79102 C 206.33439 301.55248 205.59149 300.01641 205.45312 298.18359 L 205.45312 290.08203 C 205.45312 287.95192 206.17319 286.14651 207.60938 284.66016 C 208.8695 283.39969 210.34529 282.67795 212.0332 282.48633 L 212.0332 275.89258 C 211.26841 276.06551 210.53449 276.30862 209.83594 276.63477 C 207.95397 277.52629 206.49293 278.76419 205.45312 280.34961 L 205.45312 262.36719 z M 155.08789 262.51562 L 145.72266 267.7168 L 145.72266 278.49219 C 143.98752 277.08831 141.94819 276.20863 139.60742 275.85156 L 139.60742 282.37695 C 141.03457 282.47678 142.28171 283.01175 143.34961 283.99023 C 144.58596 285.03067 145.37679 286.36716 145.72266 288.00195 L 145.72266 297.43945 C 145.47674 299.27227 144.58774 300.90694 143.05273 302.34375 C 141.96618 303.32478 140.81684 303.95265 139.60742 304.24023 L 139.60742 310.88281 C 140.54627 310.67225 141.47158 310.35464 142.38281 309.92383 C 144.16487 309.08191 145.45419 308.01854 146.24805 306.73047 L 147.58398 310.29688 L 155.08789 310.29688 L 155.08789 262.51562 z M 215.0332 275.60742 L 215.0332 282.75977 C 216.34463 283.19678 217.43871 284.07118 218.30469 285.40234 C 219.59045 287.38378 220.23633 290.08176 220.23633 293.5 C 220.23633 296.96773 219.54388 299.69599 218.1582 301.67773 C 217.30508 302.89766 216.2628 303.73861 215.0332 304.20703 L 215.0332 311.15234 C 218.82025 310.97062 222.04551 309.72638 224.69336 307.39648 C 228.3563 304.07737 230.1875 299.19983 230.1875 292.75977 C 230.1875 287.75616 228.95232 283.74257 226.47852 280.7207 C 223.71078 277.37063 219.89024 275.67422 215.0332 275.60742 z M 176.03516 275.66797 C 171.23251 275.66797 167.27006 277.25529 164.14844 280.42578 C 160.68205 283.89351 158.94922 288.27557 158.94922 293.57617 C 158.94922 298.97615 160.48468 303.21173 163.55469 306.2832 C 166.77513 309.55277 171.25831 311.1875 177.00195 311.1875 C 182.34922 311.1875 186.80674 309.60219 190.37305 306.43164 L 187.99414 301.45508 C 184.47834 303.43664 181.11168 304.42578 177.89453 304.42578 C 175.61509 304.42578 173.63331 303.68338 171.95117 302.19727 C 170.31076 300.6615 169.39247 298.7534 169.19922 296.47461 L 169.84766 296.47461 L 169.84766 289.56445 L 168.67969 289.56445 C 169.22539 284.70975 171.65153 282.2832 175.95898 282.2832 C 177.43777 282.2832 178.67967 282.55575 179.69531 283.08984 L 186.65234 279.19727 C 183.88521 276.84576 180.34723 275.66797 176.03516 275.66797 z M 250.33203 275.66797 C 245.52937 275.66797 241.56779 277.25529 238.44727 280.42578 C 234.97979 283.89351 233.24609 288.27557 233.24609 293.57617 C 233.24609 298.97615 234.78155 303.21173 237.85156 306.2832 C 241.0698 309.55277 245.55189 311.1875 251.29883 311.1875 C 256.64609 311.1875 261.10301 309.60219 264.66602 306.43164 L 262.29102 301.45508 C 258.77523 303.43664 255.40794 304.42578 252.1875 304.42578 C 249.91025 304.42578 247.92957 303.68338 246.24414 302.19727 C 244.60592 300.6615 243.68934 298.7534 243.49609 296.47461 L 244.08398 296.47461 L 244.08398 289.56445 L 242.97852 289.56445 C 243.52423 284.70975 245.9484 282.2832 250.25586 282.2832 C 251.7924 282.2832 253.07305 282.57876 254.10938 283.15625 L 261.04492 279.27539 C 258.26412 276.87021 254.69302 275.66797 250.33203 275.66797 z M 286.58398 275.66797 C 285.09838 275.66797 283.63736 276.06492 282.20117 276.85742 C 280.8122 277.60027 279.87215 278.49288 279.37695 279.5332 L 278.48633 276.56055 L 270.53711 276.56055 L 270.53711 310.29688 L 279.75 310.29688 L 279.75 286.07227 C 280.54056 284.33834 281.77941 283.4707 283.46484 283.4707 C 285.2963 283.4707 287.02914 284.41226 288.66406 286.29492 L 296.53516 281.98438 C 294.35453 277.77351 291.03857 275.66797 286.58398 275.66797 z M 310.75781 275.66797 C 306.84563 275.66797 303.4527 276.98186 300.57812 279.60742 C 296.81637 283.12474 294.93359 288.12753 294.93359 294.61719 C 294.93359 299.17495 296.09717 302.9399 298.42383 305.91211 C 301.14907 309.4295 304.98943 311.1875 309.94141 311.1875 C 310.23222 311.1875 310.50764 311.16158 310.78906 311.14453 L 310.78906 304.35156 C 306.66105 303.82224 304.5918 300.1611 304.5918 293.35352 C 304.5918 289.98481 305.33471 287.30957 306.82031 285.32812 C 307.88628 283.90632 309.21317 283.00357 310.78906 282.60156 L 310.78906 275.66992 C 310.77846 275.6699 310.76843 275.66797 310.75781 275.66797 z M 136.60742 275.68945 C 132.86218 275.7976 129.63411 277.09477 126.93359 279.60742 C 123.17074 283.12474 121.28906 288.12753 121.28906 294.61719 C 121.28906 299.22449 122.45264 302.98944 124.7793 305.91211 C 127.50224 309.36669 131.44853 311.11412 136.60742 311.17578 L 136.60742 304.28711 C 132.78685 303.57538 130.87109 299.937 130.87109 293.35352 C 130.87109 289.98481 131.61597 287.30956 133.10156 285.32812 C 134.05514 284.05625 135.22621 283.1978 136.60742 282.74219 L 136.60742 275.68945 z M 101.02148 275.72461 C 96.793542 275.99194 93.307826 277.49974 90.580078 280.27539 C 87.259723 283.64404 85.599609 288.05273 85.599609 293.50195 C 85.599609 298.30741 87.085453 302.37034 90.056641 305.68945 C 93.061445 309.00695 96.721615 310.80789 101.02148 311.12305 L 101.02148 304.08594 C 97.133323 303.44083 95.181641 299.91702 95.181641 293.5 C 95.181641 286.81596 97.133479 283.14991 101.02148 282.47852 L 101.02148 275.72461 z M 104.02148 275.74219 L 104.02148 282.51953 C 107.7371 283.3068 109.5957 286.96476 109.5957 293.5 C 109.5957 299.77406 107.73713 303.28838 104.02148 304.04492 L 104.02148 311.11133 C 107.55866 310.78379 110.70335 309.37473 113.45508 306.87891 C 117.26953 303.4606 119.17578 299.00095 119.17578 293.50195 C 119.17578 288.79588 117.89036 284.80863 115.31445 281.53906 C 112.55305 278.02011 108.78287 276.09716 104.02148 275.74219 z M 313.78906 275.94531 L 313.78906 282.44336 C 314.97297 282.63952 316.06726 283.17653 317.07031 284.06445 C 318.41207 285.15431 319.17871 286.46624 319.37305 288.00195 L 319.37305 296.54883 C 319.37305 298.67901 318.63013 300.53567 317.14453 302.12109 C 316.14896 303.15013 315.02889 303.82633 313.78906 304.16602 L 313.78906 310.58789 C 316.04217 309.83944 317.90839 308.38897 319.37305 306.20898 C 319.37305 313.63994 316.69882 317.35742 311.35156 317.35742 C 307.58651 317.35742 304.19418 316.36454 301.17578 314.38281 L 298.79883 319.13867 C 302.71101 322.70553 307.34109 324.49023 312.68945 324.49023 C 317.83798 324.49023 321.79957 322.97914 324.57422 319.95703 C 327.39608 316.88562 328.80664 312.4997 328.80664 306.80273 L 328.80664 276.56055 L 321.60156 276.56055 L 320.85938 280.20117 C 320.85938 279.70578 320.14126 278.96349 318.70508 277.97266 C 317.27101 276.96232 315.62972 276.29117 313.78906 275.94531 z M 188.78125 281.44336 L 181.93164 285.27734 C 182.56441 286.39475 182.92998 287.82028 183.01953 289.56445 L 172.84766 289.56445 L 172.84766 296.47461 L 192.37695 296.47461 L 192.37695 293.05664 C 192.37695 288.33268 191.17094 284.46682 188.78125 281.44336 z M 263.14648 281.53516 L 256.2793 285.37891 C 256.87746 286.48122 257.2256 287.87197 257.3125 289.56445 L 247.08398 289.56445 L 247.08398 296.47461 L 266.67383 296.47461 L 266.67383 293.05664 C 266.67383 288.37946 265.48907 284.54536 263.14648 281.53516 z "
     id="path6736" />
  <path
     inkscape:connector-curvature="0"
     d="m 195.45733,98.16099 a 0.83543471,0.62383776 0 0 0 -0.81033,0.740233 l 36.87747,138.284437 a 95.726321,95.766918 0 0 0 43.24037,-37.08819 L 196.18641,98.467787 a 0.83543471,0.62383776 0 0 0 -0.72908,-0.3065 z"
     style="opacity:1;vector-effect:none;fill:#000000;fill-opacity:0.98780489;stroke:none;stroke-width:0.75599998;stroke-linecap:butt;stroke-linejoin:miter;stroke-miterlimit:4;stroke-dasharray:none;stroke-dashoffset:0;stroke-opacity:1;paint-order:stroke markers fill"
     id="path6733" />
  <path
     inkscape:connector-curvature="0"
     d="m 193.29976,53.462809 a 95.726321,95.766918 0 0 0 -95.366883,95.766211 95.726321,95.766918 0 0 0 14.616593,50.86417 l 79.8115,-103.225914 a 1.4943771,1.1158847 0 0 1 2.59018,0 l 79.81589,103.230194 a 95.726321,95.766918 0 0 0 14.61879,-50.86845 95.726321,95.766918 0 0 0 -95.72593,-95.766211 95.726321,95.766918 0 0 0 -0.36016,0 z"
     style="opacity:1;fill:none;fill-opacity:1;stroke:#000000;stroke-width:0.75599998;stroke-miterlimit:4;stroke-dasharray:none;stroke-opacity:1;paint-order:stroke markers fill"
     id="circle6810" />
  <rect
     style="opacity:1;fill:none;fill-opacity:1;stroke:#000000;stroke-width:0.75599998;stroke-linecap:round;stroke-miterlimit:4;stroke-dasharray:none;stroke-dashoffset:0;stroke-opacity:1"
     id="rect4536"
     width="339.40158"
     height="339.40158"
     x="19.275587"
     y="19.275587"
     ry="77.682755" />
  <path
     style="opacity:1;fill:none;fill-opacity:1;stroke:#00ff00;stroke-width:0.75599998;stroke-linecap:round;stroke-miterlimit:4;stroke-dasharray:none;stroke-dashoffset:0;stroke-opacity:1"
     d="m 135.74219,27.195312 c -18.198,0.57206 -36.619191,-0.731202 -54.661372,1.72833 -32.005044,7.194353 -56.498983,39.113669 -53.723697,72.101748 0.227518,60.70899 -0.623659,121.43189 0.306941,182.13086 -0.871636,36.37891 33.424064,68.8133 69.689454,67.54492 62.621944,-0.3566 125.283084,0.44974 187.904294,-0.38281 25.58708,-0.40765 49.29181,-17.96781 59.46875,-41.05859 6.06881,-12.26941 6.49282,-26.384 5.82115,-40.01754 0.0531,-60.11474 0.52193,-120.25619 -0.31061,-180.355442 -3.16086,-33.696026 -34.35699,-62.271109 -68.52421,-61.558663 -48.65253,-0.06104 -97.31281,0.02953 -145.9707,-0.132813 z"
     id="rect1470"
     inkscape:connector-curvature="0" />
</svg>
